TriggerSummaryStep1                     0   0     DEBUG  +++ HLT_e5_etcut_L1EM3 ID#324908483
TriggerSummaryStep1                     0   0     DEBUG  +++ HLT_xe30_L1XE10 ID#347649004
TriggerSummaryStep1                     0   0     DEBUG  +++ HLT_g5_etcut_L1EM3 ID#471243435
TriggerSummaryStep1                     0   0     DEBUG  +++ HLT_e3_etcut_L1EM3 ID#683953566
TriggerSummaryStep1                     0   0     DEBUG  +++ HLT_e3_etcut1step_L1EM3 ID#999988353
TriggerSummaryStep1                     0   0     DEBUG  +++ HLT_j45_L1J20 ID#1247336154
TriggerSummaryStep1                     0   0     DEBUG  +++ HLT_xe30_tcpufit_L1XE10 ID#1583719916
TriggerSummaryStep1                     0   0     DEBUG  +++ HLT_e7_etcut_L1EM3 ID#1959043579
TriggerSummaryStep1                     0   0     DEBUG  +++ HLT_j35_gsc45_boffperf_split_L1J20 ID#2603162203
TriggerSummaryStep1                     0   0     DEBUG  +++ HLT_j35_gsc45_bmv2c1070_L1J20 ID#3007674636
TriggerSummaryStep1                     0   0     DEBUG  +++ HLT_xe30_cell_xe30_tcpufit_L1XE10 ID#3768353779
TriggerSummaryStep1                     0   0     DEBUG  +++ HLT_j35_gsc45_bmv2c1070_split_L1J20 ID#3815360851
TriggerSummaryStep2                     0   0     DEBUG  +++ HLT_e5_etcut_L1EM3 ID#324908483
TriggerSummaryStep2                     0   0     DEBUG  +++ HLT_g5_etcut_L1EM3 ID#471243435
TriggerSummaryStep2                     0   0     DEBUG  +++ HLT_e3_etcut_L1EM3 ID#683953566
TriggerSummaryStep2                     0   0     DEBUG  +++ HLT_e7_etcut_L1EM3 ID#1959043579
TriggerSummaryStep2                     0   0     DEBUG  +++ HLT_j35_gsc45_boffperf_split_L1J20 ID#2603162203
TriggerSummaryStep2                     0   0     DEBUG  +++ HLT_j35_gsc45_bmv2c1070_L1J20 ID#3007674636
TriggerSummaryStep2                     0   0     DEBUG  +++ HLT_j35_gsc45_bmv2c1070_split_L1J20 ID#3815360851
TriggerSummaryStep3                     0   0     DEBUG  +++ HLT_e5_etcut_L1EM3 ID#324908483
TriggerSummaryStep3                     0   0     DEBUG  +++ HLT_g5_etcut_L1EM3 ID#471243435
TriggerSummaryStep3                     0   0     DEBUG  +++ HLT_e3_etcut_L1EM3 ID#683953566
TriggerSummaryStep3                     0   0     DEBUG  +++ HLT_e7_etcut_L1EM3 ID#1959043579
TriggerSummaryStep1                     1   0     DEBUG  +++ HLT_e5_etcut_L1EM3 ID#324908483
TriggerSummaryStep1                     1   0     DEBUG  +++ HLT_xe30_L1XE10 ID#347649004
TriggerSummaryStep1                     1   0     DEBUG  +++ HLT_g5_etcut_L1EM3 ID#471243435
TriggerSummaryStep1                     1   0     DEBUG  +++ HLT_e3_etcut_L1EM3 ID#683953566
TriggerSummaryStep1                     1   0     DEBUG  +++ HLT_e3_etcut1step_L1EM3 ID#999988353
TriggerSummaryStep1                     1   0     DEBUG  +++ HLT_j45_L1J20 ID#1247336154
TriggerSummaryStep1                     1   0     DEBUG  +++ HLT_xe30_tcpufit_L1XE10 ID#1583719916
TriggerSummaryStep1                     1   0     DEBUG  +++ HLT_e7_etcut_L1EM3 ID#1959043579
TriggerSummaryStep1                     1   0     DEBUG  +++ HLT_j35_gsc45_boffperf_split_L1J20 ID#2603162203
TriggerSummaryStep1                     1   0     DEBUG  +++ HLT_j35_gsc45_bmv2c1070_L1J20 ID#3007674636
TriggerSummaryStep1                     1   0     DEBUG  +++ HLT_xe30_cell_xe30_tcpufit_L1XE10 ID#3768353779
TriggerSummaryStep1                     1   0     DEBUG  +++ HLT_j35_gsc45_bmv2c1070_split_L1J20 ID#3815360851
TriggerSummaryStep2                     1   0     DEBUG  +++ HLT_e5_etcut_L1EM3 ID#324908483
TriggerSummaryStep2                     1   0     DEBUG  +++ HLT_g5_etcut_L1EM3 ID#471243435
TriggerSummaryStep2                     1   0     DEBUG  +++ HLT_e3_etcut_L1EM3 ID#683953566
TriggerSummaryStep2                     1   0     DEBUG  +++ HLT_e7_etcut_L1EM3 ID#1959043579
TriggerSummaryStep2                     1   0     DEBUG  +++ HLT_j35_gsc45_boffperf_split_L1J20 ID#2603162203
TriggerSummaryStep2                     1   0     DEBUG  +++ HLT_j35_gsc45_bmv2c1070_L1J20 ID#3007674636
TriggerSummaryStep2                     1   0     DEBUG  +++ HLT_j35_gsc45_bmv2c1070_split_L1J20 ID#3815360851
TriggerSummaryStep3                     1   0     DEBUG  +++ HLT_e5_etcut_L1EM3 ID#324908483
TriggerSummaryStep3                     1   0     DEBUG  +++ HLT_g5_etcut_L1EM3 ID#471243435
TriggerSummaryStep3                     1   0     DEBUG  +++ HLT_e3_etcut_L1EM3 ID#683953566
TriggerSummaryStep3                     1   0     DEBUG  +++ HLT_e7_etcut_L1EM3 ID#1959043579
TriggerSummaryStep1                     2   0     DEBUG  +++ HLT_e5_etcut_L1EM3 ID#324908483
TriggerSummaryStep1                     2   0     DEBUG  +++ HLT_g5_etcut_L1EM3 ID#471243435
TriggerSummaryStep1                     2   0     DEBUG  +++ HLT_e3_etcut_L1EM3 ID#683953566
TriggerSummaryStep1                     2   0     DEBUG  +++ HLT_e3_etcut1step_L1EM3 ID#999988353
TriggerSummaryStep1                     2   0     DEBUG  +++ HLT_e7_etcut_L1EM3 ID#1959043579
TriggerSummaryStep2                     2   0     DEBUG  +++ HLT_e5_etcut_L1EM3 ID#324908483
TriggerSummaryStep2                     2   0     DEBUG  +++ HLT_g5_etcut_L1EM3 ID#471243435
TriggerSummaryStep2                     2   0     DEBUG  +++ HLT_e3_etcut_L1EM3 ID#683953566
TriggerSummaryStep2                     2   0     DEBUG  +++ HLT_e7_etcut_L1EM3 ID#1959043579
TriggerSummaryStep3                     2   0     DEBUG  +++ HLT_e5_etcut_L1EM3 ID#324908483
TriggerSummaryStep3                     2   0     DEBUG  +++ HLT_g5_etcut_L1EM3 ID#471243435
TriggerSummaryStep3                     2   0     DEBUG  +++ HLT_e3_etcut_L1EM3 ID#683953566
TriggerSummaryStep3                     2   0     DEBUG  +++ HLT_e7_etcut_L1EM3 ID#1959043579
TriggerSummaryStep1                     3   0     DEBUG  +++ HLT_e5_etcut_L1EM3 ID#324908483
TriggerSummaryStep1                     3   0     DEBUG  +++ HLT_xe30_L1XE10 ID#347649004
TriggerSummaryStep1                     3   0     DEBUG  +++ HLT_g5_etcut_L1EM3 ID#471243435
TriggerSummaryStep1                     3   0     DEBUG  +++ HLT_e3_etcut_L1EM3 ID#683953566
TriggerSummaryStep1                     3   0     DEBUG  +++ HLT_e3_etcut1step_L1EM3 ID#999988353
TriggerSummaryStep1                     3   0     DEBUG  +++ HLT_j45_L1J20 ID#1247336154
TriggerSummaryStep1                     3   0     DEBUG  +++ HLT_xe30_tcpufit_L1XE10 ID#1583719916
TriggerSummaryStep1                     3   0     DEBUG  +++ HLT_e7_etcut_L1EM3 ID#1959043579
TriggerSummaryStep1                     3   0     DEBUG  +++ HLT_j35_gsc45_boffperf_split_L1J20 ID#2603162203
TriggerSummaryStep1                     3   0     DEBUG  +++ HLT_j35_gsc45_bmv2c1070_L1J20 ID#3007674636
TriggerSummaryStep1                     3   0     DEBUG  +++ HLT_xe30_cell_xe30_tcpufit_L1XE10 ID#3768353779
TriggerSummaryStep1                     3   0     DEBUG  +++ HLT_j35_gsc45_bmv2c1070_split_L1J20 ID#3815360851
TriggerSummaryStep2                     3   0     DEBUG  +++ HLT_e5_etcut_L1EM3 ID#324908483
TriggerSummaryStep2                     3   0     DEBUG  +++ HLT_g5_etcut_L1EM3 ID#471243435
TriggerSummaryStep2                     3   0     DEBUG  +++ HLT_e3_etcut_L1EM3 ID#683953566
TriggerSummaryStep2                     3   0     DEBUG  +++ HLT_e7_etcut_L1EM3 ID#1959043579
TriggerSummaryStep2                     3   0     DEBUG  +++ HLT_j35_gsc45_boffperf_split_L1J20 ID#2603162203
TriggerSummaryStep2                     3   0     DEBUG  +++ HLT_j35_gsc45_bmv2c1070_L1J20 ID#3007674636
TriggerSummaryStep2                     3   0     DEBUG  +++ HLT_j35_gsc45_bmv2c1070_split_L1J20 ID#3815360851
TriggerSummaryStep3                     3   0     DEBUG  +++ HLT_e5_etcut_L1EM3 ID#324908483
TriggerSummaryStep3                     3   0     DEBUG  +++ HLT_g5_etcut_L1EM3 ID#471243435
TriggerSummaryStep3                     3   0     DEBUG  +++ HLT_e3_etcut_L1EM3 ID#683953566
TriggerSummaryStep3                     3   0     DEBUG  +++ HLT_e7_etcut_L1EM3 ID#1959043579
TriggerSummaryStep1                     4   0     DEBUG  +++ HLT_e5_etcut_L1EM3 ID#324908483
TriggerSummaryStep1                     4   0     DEBUG  +++ HLT_g5_etcut_L1EM3 ID#471243435
TriggerSummaryStep1                     4   0     DEBUG  +++ HLT_mu6nol1_L1MU6 ID#501380442
TriggerSummaryStep1                     4   0     DEBUG  +++ HLT_e3_etcut_L1EM3 ID#683953566
TriggerSummaryStep1                     4   0     DEBUG  +++ HLT_e3_etcut1step_L1EM3 ID#999988353
TriggerSummaryStep1                     4   0     DEBUG  +++ HLT_e7_etcut_L1EM3 ID#1959043579
TriggerSummaryStep2                     4   0     DEBUG  +++ HLT_e5_etcut_L1EM3 ID#324908483
TriggerSummaryStep2                     4   0     DEBUG  +++ HLT_g5_etcut_L1EM3 ID#471243435
TriggerSummaryStep2                     4   0     DEBUG  +++ HLT_e3_etcut_L1EM3 ID#683953566
TriggerSummaryStep2                     4   0     DEBUG  +++ HLT_e7_etcut_L1EM3 ID#1959043579
TriggerSummaryStep3                     4   0     DEBUG  +++ HLT_e5_etcut_L1EM3 ID#324908483
TriggerSummaryStep3                     4   0     DEBUG  +++ HLT_g5_etcut_L1EM3 ID#471243435
TriggerSummaryStep3                     4   0     DEBUG  +++ HLT_e3_etcut_L1EM3 ID#683953566
TriggerSummaryStep1                     5   0     DEBUG  +++ HLT_e5_etcut_L1EM3 ID#324908483
TriggerSummaryStep1                     5   0     DEBUG  +++ HLT_xe30_L1XE10 ID#347649004
TriggerSummaryStep1                     5   0     DEBUG  +++ HLT_g5_etcut_L1EM3 ID#471243435
TriggerSummaryStep1                     5   0     DEBUG  +++ HLT_e3_etcut_L1EM3 ID#683953566
TriggerSummaryStep1                     5   0     DEBUG  +++ HLT_mu6Comb_L1MU6 ID#996392590
TriggerSummaryStep1                     5   0     DEBUG  +++ HLT_e3_etcut1step_L1EM3 ID#999988353
TriggerSummaryStep1                     5   0     DEBUG  +++ HLT_e7_etcut_L1EM3 ID#1959043579
TriggerSummaryStep1                     5   0     DEBUG  +++ HLT_mu20_ivar_L1MU6 ID#2083734526
TriggerSummaryStep1                     5   0     DEBUG  +++ HLT_mu6msonly_L1MU6 ID#2316111217
TriggerSummaryStep1                     5   0     DEBUG  +++ HLT_mu6_L1MU6 ID#2560542253
TriggerSummaryStep1                     5   0     DEBUG  +++ HLT_mu6fast_L1MU6 ID#3518031697
TriggerSummaryStep1                     5   0     DEBUG  +++ HLT_e3_etcut_mu6_L1EM8I_MU10 ID#3997258299
TriggerSummaryStep2                     5   0     DEBUG  +++ HLT_e5_etcut_L1EM3 ID#324908483
TriggerSummaryStep2                     5   0     DEBUG  +++ HLT_g5_etcut_L1EM3 ID#471243435
TriggerSummaryStep2                     5   0     DEBUG  +++ HLT_e3_etcut_L1EM3 ID#683953566
TriggerSummaryStep2                     5   0     DEBUG  +++ HLT_mu6Comb_L1MU6 ID#996392590
TriggerSummaryStep2                     5   0     DEBUG  +++ HLT_e7_etcut_L1EM3 ID#1959043579
TriggerSummaryStep2                     5   0     DEBUG  +++ HLT_mu6msonly_L1MU6 ID#2316111217
TriggerSummaryStep2                     5   0     DEBUG  +++ HLT_mu6_L1MU6 ID#2560542253
TriggerSummaryStep3                     5   0     DEBUG  +++ HLT_e5_etcut_L1EM3 ID#324908483
TriggerSummaryStep3                     5   0     DEBUG  +++ HLT_g5_etcut_L1EM3 ID#471243435
TriggerSummaryStep3                     5   0     DEBUG  +++ HLT_e3_etcut_L1EM3 ID#683953566
TriggerSummaryStep3                     5   0     DEBUG  +++ HLT_e7_etcut_L1EM3 ID#1959043579
TriggerSummaryStep1                     6   0     DEBUG  +++ HLT_e5_etcut_L1EM3 ID#324908483
TriggerSummaryStep1                     6   0     DEBUG  +++ HLT_xe30_L1XE10 ID#347649004
TriggerSummaryStep1                     6   0     DEBUG  +++ HLT_g5_etcut_L1EM3 ID#471243435
TriggerSummaryStep1                     6   0     DEBUG  +++ HLT_mu6nol1_L1MU6 ID#501380442
TriggerSummaryStep1                     6   0     DEBUG  +++ HLT_e3_etcut_L1EM3 ID#683953566
TriggerSummaryStep1                     6   0     DEBUG  +++ HLT_mu6Comb_L1MU6 ID#996392590
TriggerSummaryStep1                     6   0     DEBUG  +++ HLT_e3_etcut1step_L1EM3 ID#999988353
TriggerSummaryStep1                     6   0     DEBUG  +++ HLT_e7_etcut_L1EM3 ID#1959043579
TriggerSummaryStep1                     6   0     DEBUG  +++ HLT_mu20_ivar_L1MU6 ID#2083734526
TriggerSummaryStep1                     6   0     DEBUG  +++ HLT_mu6msonly_L1MU6 ID#2316111217
TriggerSummaryStep1                     6   0     DEBUG  +++ HLT_mu6_L1MU6 ID#2560542253
TriggerSummaryStep1                     6   0     DEBUG  +++ HLT_mu6fast_L1MU6 ID#3518031697
TriggerSummaryStep2                     6   0     DEBUG  +++ HLT_e5_etcut_L1EM3 ID#324908483
TriggerSummaryStep2                     6   0     DEBUG  +++ HLT_g5_etcut_L1EM3 ID#471243435
TriggerSummaryStep2                     6   0     DEBUG  +++ HLT_mu6nol1_L1MU6 ID#501380442
TriggerSummaryStep2                     6   0     DEBUG  +++ HLT_e3_etcut_L1EM3 ID#683953566
TriggerSummaryStep2                     6   0     DEBUG  +++ HLT_mu6Comb_L1MU6 ID#996392590
TriggerSummaryStep2                     6   0     DEBUG  +++ HLT_e7_etcut_L1EM3 ID#1959043579
TriggerSummaryStep2                     6   0     DEBUG  +++ HLT_mu20_ivar_L1MU6 ID#2083734526
TriggerSummaryStep2                     6   0     DEBUG  +++ HLT_mu6msonly_L1MU6 ID#2316111217
TriggerSummaryStep2                     6   0     DEBUG  +++ HLT_mu6_L1MU6 ID#2560542253
TriggerSummaryStep3                     6   0     DEBUG  +++ HLT_e5_etcut_L1EM3 ID#324908483
TriggerSummaryStep3                     6   0     DEBUG  +++ HLT_g5_etcut_L1EM3 ID#471243435
TriggerSummaryStep3                     6   0     DEBUG  +++ HLT_e3_etcut_L1EM3 ID#683953566
TriggerSummaryStep3                     6   0     DEBUG  +++ HLT_mu20_ivar_L1MU6 ID#2083734526
TriggerSummaryStep3                     6   0     DEBUG  +++ HLT_mu6msonly_L1MU6 ID#2316111217
TriggerSummaryStep3                     6   0     DEBUG  +++ HLT_mu6_L1MU6 ID#2560542253
TriggerSummaryStep4                     6   0     DEBUG  +++ HLT_mu6_L1MU6 ID#2560542253
TriggerSummaryStep1                     7   0     DEBUG  +++ HLT_e5_etcut_L1EM3 ID#324908483
TriggerSummaryStep1                     7   0     DEBUG  +++ HLT_g5_etcut_L1EM3 ID#471243435
TriggerSummaryStep1                     7   0     DEBUG  +++ HLT_e3_etcut_L1EM3 ID#683953566
TriggerSummaryStep1                     7   0     DEBUG  +++ HLT_e3_etcut1step_L1EM3 ID#999988353
TriggerSummaryStep1                     7   0     DEBUG  +++ HLT_e7_etcut_L1EM3 ID#1959043579
TriggerSummaryStep2                     7   0     DEBUG  +++ HLT_e5_etcut_L1EM3 ID#324908483
TriggerSummaryStep2                     7   0     DEBUG  +++ HLT_g5_etcut_L1EM3 ID#471243435
TriggerSummaryStep2                     7   0     DEBUG  +++ HLT_e3_etcut_L1EM3 ID#683953566
TriggerSummaryStep2                     7   0     DEBUG  +++ HLT_e7_etcut_L1EM3 ID#1959043579
TriggerSummaryStep3                     7   0     DEBUG  +++ HLT_e5_etcut_L1EM3 ID#324908483
TriggerSummaryStep3                     7   0     DEBUG  +++ HLT_g5_etcut_L1EM3 ID#471243435
TriggerSummaryStep3                     7   0     DEBUG  +++ HLT_e3_etcut_L1EM3 ID#683953566
TriggerSummaryStep3                     7   0     DEBUG  +++ HLT_e7_etcut_L1EM3 ID#1959043579
TriggerSummaryStep1                     8   0     DEBUG  +++ HLT_e5_etcut_L1EM3 ID#324908483
TriggerSummaryStep1                     8   0     DEBUG  +++ HLT_xe30_L1XE10 ID#347649004
TriggerSummaryStep1                     8   0     DEBUG  +++ HLT_g5_etcut_L1EM3 ID#471243435
TriggerSummaryStep1                     8   0     DEBUG  +++ HLT_e3_etcut_L1EM3 ID#683953566
TriggerSummaryStep1                     8   0     DEBUG  +++ HLT_e3_etcut1step_L1EM3 ID#999988353
TriggerSummaryStep1                     8   0     DEBUG  +++ HLT_e7_etcut_L1EM3 ID#1959043579
TriggerSummaryStep2                     8   0     DEBUG  +++ HLT_e5_etcut_L1EM3 ID#324908483
TriggerSummaryStep2                     8   0     DEBUG  +++ HLT_g5_etcut_L1EM3 ID#471243435
TriggerSummaryStep2                     8   0     DEBUG  +++ HLT_e3_etcut_L1EM3 ID#683953566
TriggerSummaryStep2                     8   0     DEBUG  +++ HLT_e7_etcut_L1EM3 ID#1959043579
TriggerSummaryStep3                     8   0     DEBUG  +++ HLT_e5_etcut_L1EM3 ID#324908483
TriggerSummaryStep3                     8   0     DEBUG  +++ HLT_g5_etcut_L1EM3 ID#471243435
TriggerSummaryStep3                     8   0     DEBUG  +++ HLT_e3_etcut_L1EM3 ID#683953566
TriggerSummaryStep3                     8   0     DEBUG  +++ HLT_e7_etcut_L1EM3 ID#1959043579
TriggerSummaryStep1                     9   0     DEBUG  +++ HLT_xe30_L1XE10 ID#347649004
TriggerSummaryStep1                     10  0     DEBUG  +++ HLT_e5_etcut_L1EM3 ID#324908483
TriggerSummaryStep1                     10  0     DEBUG  +++ HLT_g5_etcut_L1EM3 ID#471243435
TriggerSummaryStep1                     10  0     DEBUG  +++ HLT_e3_etcut_L1EM3 ID#683953566
TriggerSummaryStep1                     10  0     DEBUG  +++ HLT_e3_etcut1step_L1EM3 ID#999988353
TriggerSummaryStep1                     10  0     DEBUG  +++ HLT_j45_L1J20 ID#1247336154
TriggerSummaryStep1                     10  0     DEBUG  +++ HLT_e7_etcut_L1EM3 ID#1959043579
TriggerSummaryStep1                     10  0     DEBUG  +++ HLT_j35_gsc45_boffperf_split_L1J20 ID#2603162203
TriggerSummaryStep1                     10  0     DEBUG  +++ HLT_j35_gsc45_bmv2c1070_L1J20 ID#3007674636
TriggerSummaryStep1                     10  0     DEBUG  +++ HLT_j35_gsc45_bmv2c1070_split_L1J20 ID#3815360851
TriggerSummaryStep2                     10  0     DEBUG  +++ HLT_e5_etcut_L1EM3 ID#324908483
TriggerSummaryStep2                     10  0     DEBUG  +++ HLT_g5_etcut_L1EM3 ID#471243435
TriggerSummaryStep2                     10  0     DEBUG  +++ HLT_e3_etcut_L1EM3 ID#683953566
TriggerSummaryStep2                     10  0     DEBUG  +++ HLT_e7_etcut_L1EM3 ID#1959043579
TriggerSummaryStep2                     10  0     DEBUG  +++ HLT_j35_gsc45_boffperf_split_L1J20 ID#2603162203
TriggerSummaryStep2                     10  0     DEBUG  +++ HLT_j35_gsc45_bmv2c1070_L1J20 ID#3007674636
TriggerSummaryStep2                     10  0     DEBUG  +++ HLT_j35_gsc45_bmv2c1070_split_L1J20 ID#3815360851
TriggerSummaryStep3                     10  0     DEBUG  +++ HLT_e5_etcut_L1EM3 ID#324908483
TriggerSummaryStep3                     10  0     DEBUG  +++ HLT_g5_etcut_L1EM3 ID#471243435
TriggerSummaryStep3                     10  0     DEBUG  +++ HLT_e3_etcut_L1EM3 ID#683953566
TriggerSummaryStep3                     10  0     DEBUG  +++ HLT_e7_etcut_L1EM3 ID#1959043579
TriggerSummaryStep1                     11  0     DEBUG  +++ HLT_e5_etcut_L1EM3 ID#324908483
TriggerSummaryStep1                     11  0     DEBUG  +++ HLT_g5_etcut_L1EM3 ID#471243435
TriggerSummaryStep1                     11  0     DEBUG  +++ HLT_e3_etcut_L1EM3 ID#683953566
TriggerSummaryStep1                     11  0     DEBUG  +++ HLT_e3_etcut1step_L1EM3 ID#999988353
TriggerSummaryStep2                     11  0     DEBUG  +++ HLT_e5_etcut_L1EM3 ID#324908483
TriggerSummaryStep2                     11  0     DEBUG  +++ HLT_g5_etcut_L1EM3 ID#471243435
TriggerSummaryStep2                     11  0     DEBUG  +++ HLT_e3_etcut_L1EM3 ID#683953566
TriggerSummaryStep3                     11  0     DEBUG  +++ HLT_e5_etcut_L1EM3 ID#324908483
TriggerSummaryStep3                     11  0     DEBUG  +++ HLT_g5_etcut_L1EM3 ID#471243435
TriggerSummaryStep3                     11  0     DEBUG  +++ HLT_e3_etcut_L1EM3 ID#683953566
TriggerSummaryStep1                     12  0     DEBUG  +++ HLT_e5_etcut_L1EM3 ID#324908483
TriggerSummaryStep1                     12  0     DEBUG  +++ HLT_xe30_L1XE10 ID#347649004
TriggerSummaryStep1                     12  0     DEBUG  +++ HLT_g5_etcut_L1EM3 ID#471243435
TriggerSummaryStep1                     12  0     DEBUG  +++ HLT_e3_etcut_L1EM3 ID#683953566
TriggerSummaryStep1                     12  0     DEBUG  +++ HLT_e3_etcut1step_L1EM3 ID#999988353
TriggerSummaryStep1                     12  0     DEBUG  +++ HLT_xe65_L1XE50 ID#1283272884
TriggerSummaryStep1                     12  0     DEBUG  +++ HLT_e7_etcut_L1EM3 ID#1959043579
TriggerSummaryStep2                     12  0     DEBUG  +++ HLT_e5_etcut_L1EM3 ID#324908483
TriggerSummaryStep2                     12  0     DEBUG  +++ HLT_g5_etcut_L1EM3 ID#471243435
TriggerSummaryStep2                     12  0     DEBUG  +++ HLT_e3_etcut_L1EM3 ID#683953566
TriggerSummaryStep2                     12  0     DEBUG  +++ HLT_e7_etcut_L1EM3 ID#1959043579
TriggerSummaryStep3                     12  0     DEBUG  +++ HLT_e5_etcut_L1EM3 ID#324908483
TriggerSummaryStep3                     12  0     DEBUG  +++ HLT_g5_etcut_L1EM3 ID#471243435
TriggerSummaryStep3                     12  0     DEBUG  +++ HLT_e3_etcut_L1EM3 ID#683953566
TriggerSummaryStep3                     12  0     DEBUG  +++ HLT_e7_etcut_L1EM3 ID#1959043579
TriggerSummaryStep1                     13  0     DEBUG  +++ HLT_e5_etcut_L1EM3 ID#324908483
TriggerSummaryStep1                     13  0     DEBUG  +++ HLT_g5_etcut_L1EM3 ID#471243435
TriggerSummaryStep1                     13  0     DEBUG  +++ HLT_e3_etcut_L1EM3 ID#683953566
TriggerSummaryStep1                     13  0     DEBUG  +++ HLT_e3_etcut1step_L1EM3 ID#999988353
TriggerSummaryStep1                     13  0     DEBUG  +++ HLT_e7_etcut_L1EM3 ID#1959043579
TriggerSummaryStep1                     13  0     DEBUG  +++ HLT_j35_gsc45_boffperf_split_L1J20 ID#2603162203
TriggerSummaryStep1                     13  0     DEBUG  +++ HLT_j35_gsc45_bmv2c1070_L1J20 ID#3007674636
TriggerSummaryStep1                     13  0     DEBUG  +++ HLT_j35_gsc45_bmv2c1070_split_L1J20 ID#3815360851
TriggerSummaryStep2                     13  0     DEBUG  +++ HLT_e5_etcut_L1EM3 ID#324908483
TriggerSummaryStep2                     13  0     DEBUG  +++ HLT_g5_etcut_L1EM3 ID#471243435
TriggerSummaryStep2                     13  0     DEBUG  +++ HLT_e3_etcut_L1EM3 ID#683953566
TriggerSummaryStep2                     13  0     DEBUG  +++ HLT_e7_etcut_L1EM3 ID#1959043579
TriggerSummaryStep3                     13  0     DEBUG  +++ HLT_e5_etcut_L1EM3 ID#324908483
TriggerSummaryStep3                     13  0     DEBUG  +++ HLT_g5_etcut_L1EM3 ID#471243435
TriggerSummaryStep3                     13  0     DEBUG  +++ HLT_e3_etcut_L1EM3 ID#683953566
TriggerSummaryStep3                     13  0     DEBUG  +++ HLT_e7_etcut_L1EM3 ID#1959043579
TriggerSummaryStep1                     14  0     DEBUG  +++ HLT_e5_etcut_L1EM3 ID#324908483
TriggerSummaryStep1                     14  0     DEBUG  +++ HLT_xe30_L1XE10 ID#347649004
TriggerSummaryStep1                     14  0     DEBUG  +++ HLT_g5_etcut_L1EM3 ID#471243435
TriggerSummaryStep1                     14  0     DEBUG  +++ HLT_e3_etcut_L1EM3 ID#683953566
TriggerSummaryStep1                     14  0     DEBUG  +++ HLT_e3_etcut1step_L1EM3 ID#999988353
TriggerSummaryStep1                     14  0     DEBUG  +++ HLT_xe65_L1XE50 ID#1283272884
TriggerSummaryStep2                     14  0     DEBUG  +++ HLT_e5_etcut_L1EM3 ID#324908483
TriggerSummaryStep2                     14  0     DEBUG  +++ HLT_g5_etcut_L1EM3 ID#471243435
TriggerSummaryStep2                     14  0     DEBUG  +++ HLT_e3_etcut_L1EM3 ID#683953566
TriggerSummaryStep3                     14  0     DEBUG  +++ HLT_e5_etcut_L1EM3 ID#324908483
TriggerSummaryStep3                     14  0     DEBUG  +++ HLT_g5_etcut_L1EM3 ID#471243435
TriggerSummaryStep3                     14  0     DEBUG  +++ HLT_e3_etcut_L1EM3 ID#683953566
TriggerSummaryStep1                     15  0     DEBUG  +++ HLT_mu6nol1_L1MU6 ID#501380442
TriggerSummaryStep1                     15  0     DEBUG  +++ HLT_mu6Comb_L1MU6 ID#996392590
TriggerSummaryStep1                     15  0     DEBUG  +++ HLT_mu20_ivar_L1MU6 ID#2083734526
TriggerSummaryStep1                     15  0     DEBUG  +++ HLT_mu6msonly_L1MU6 ID#2316111217
TriggerSummaryStep1                     15  0     DEBUG  +++ HLT_mu6_L1MU6 ID#2560542253
TriggerSummaryStep1                     15  0     DEBUG  +++ HLT_mu6fast_L1MU6 ID#3518031697
TriggerSummaryStep2                     15  0     DEBUG  +++ HLT_mu6msonly_L1MU6 ID#2316111217
TriggerSummaryStep3                     15  0     DEBUG  +++ HLT_mu6msonly_L1MU6 ID#2316111217
TriggerSummaryStep1                     16  0     DEBUG  +++ HLT_xe30_L1XE10 ID#347649004
TriggerSummaryStep1                     16  0     DEBUG  +++ HLT_e3_etcut_L1EM3 ID#683953566
TriggerSummaryStep1                     16  0     DEBUG  +++ HLT_e3_etcut1step_L1EM3 ID#999988353
TriggerSummaryStep2                     16  0     DEBUG  +++ HLT_e3_etcut_L1EM3 ID#683953566
TriggerSummaryStep3                     16  0     DEBUG  +++ HLT_e3_etcut_L1EM3 ID#683953566
TriggerSummaryStep1                     17  0     DEBUG  +++ HLT_e5_etcut_L1EM3 ID#324908483
TriggerSummaryStep1                     17  0     DEBUG  +++ HLT_xe30_L1XE10 ID#347649004
TriggerSummaryStep1                     17  0     DEBUG  +++ HLT_g5_etcut_L1EM3 ID#471243435
TriggerSummaryStep1                     17  0     DEBUG  +++ HLT_e3_etcut_L1EM3 ID#683953566
TriggerSummaryStep1                     17  0     DEBUG  +++ HLT_e3_etcut1step_L1EM3 ID#999988353
TriggerSummaryStep1                     17  0     DEBUG  +++ HLT_xe65_L1XE50 ID#1283272884
TriggerSummaryStep1                     17  0     DEBUG  +++ HLT_e7_etcut_L1EM3 ID#1959043579
TriggerSummaryStep2                     17  0     DEBUG  +++ HLT_e5_etcut_L1EM3 ID#324908483
TriggerSummaryStep2                     17  0     DEBUG  +++ HLT_g5_etcut_L1EM3 ID#471243435
TriggerSummaryStep2                     17  0     DEBUG  +++ HLT_e3_etcut_L1EM3 ID#683953566
TriggerSummaryStep2                     17  0     DEBUG  +++ HLT_e7_etcut_L1EM3 ID#1959043579
TriggerSummaryStep3                     17  0     DEBUG  +++ HLT_e5_etcut_L1EM3 ID#324908483
TriggerSummaryStep3                     17  0     DEBUG  +++ HLT_g5_etcut_L1EM3 ID#471243435
TriggerSummaryStep3                     17  0     DEBUG  +++ HLT_e3_etcut_L1EM3 ID#683953566
TriggerSummaryStep3                     17  0     DEBUG  +++ HLT_e7_etcut_L1EM3 ID#1959043579
TriggerSummaryStep1                     18  0     DEBUG  +++ HLT_e5_etcut_L1EM3 ID#324908483
TriggerSummaryStep1                     18  0     DEBUG  +++ HLT_g5_etcut_L1EM3 ID#471243435
TriggerSummaryStep1                     18  0     DEBUG  +++ HLT_e3_etcut_L1EM3 ID#683953566
TriggerSummaryStep1                     18  0     DEBUG  +++ HLT_e3_etcut1step_L1EM3 ID#999988353
TriggerSummaryStep1                     18  0     DEBUG  +++ HLT_e7_etcut_L1EM3 ID#1959043579
TriggerSummaryStep2                     18  0     DEBUG  +++ HLT_g5_etcut_L1EM3 ID#471243435
TriggerSummaryStep3                     18  0     DEBUG  +++ HLT_g5_etcut_L1EM3 ID#471243435
TriggerSummaryStep1                     19  0     DEBUG  +++ HLT_e5_etcut_L1EM3 ID#324908483
TriggerSummaryStep1                     19  0     DEBUG  +++ HLT_xe30_L1XE10 ID#347649004
TriggerSummaryStep1                     19  0     DEBUG  +++ HLT_g5_etcut_L1EM3 ID#471243435
TriggerSummaryStep1                     19  0     DEBUG  +++ HLT_j85_L1J20 ID#510475538
TriggerSummaryStep1                     19  0     DEBUG  +++ HLT_e3_etcut_L1EM3 ID#683953566
TriggerSummaryStep1                     19  0     DEBUG  +++ HLT_e3_etcut1step_L1EM3 ID#999988353
TriggerSummaryStep1                     19  0     DEBUG  +++ HLT_j45_L1J20 ID#1247336154
TriggerSummaryStep1                     19  0     DEBUG  +++ HLT_e7_etcut_L1EM3 ID#1959043579
TriggerSummaryStep1                     19  0     DEBUG  +++ HLT_j35_gsc45_boffperf_split_L1J20 ID#2603162203
TriggerSummaryStep1                     19  0     DEBUG  +++ HLT_j35_gsc45_bmv2c1070_L1J20 ID#3007674636
TriggerSummaryStep1                     19  0     DEBUG  +++ HLT_j35_gsc45_bmv2c1070_split_L1J20 ID#3815360851
TriggerSummaryStep1                     19  0     DEBUG  +++ HLT_j0_vbenfSEP30etSEP34mass35SEP50fbet_L1J20 ID#4034799151
TriggerSummaryStep2                     19  0     DEBUG  +++ HLT_e5_etcut_L1EM3 ID#324908483
TriggerSummaryStep2                     19  0     DEBUG  +++ HLT_g5_etcut_L1EM3 ID#471243435
TriggerSummaryStep2                     19  0     DEBUG  +++ HLT_e3_etcut_L1EM3 ID#683953566
TriggerSummaryStep2                     19  0     DEBUG  +++ HLT_e7_etcut_L1EM3 ID#1959043579
TriggerSummaryStep2                     19  0     DEBUG  +++ HLT_j35_gsc45_boffperf_split_L1J20 ID#2603162203
TriggerSummaryStep2                     19  0     DEBUG  +++ HLT_j35_gsc45_bmv2c1070_L1J20 ID#3007674636
TriggerSummaryStep2                     19  0     DEBUG  +++ HLT_j35_gsc45_bmv2c1070_split_L1J20 ID#3815360851
TriggerSummaryStep3                     19  0     DEBUG  +++ HLT_e5_etcut_L1EM3 ID#324908483
TriggerSummaryStep3                     19  0     DEBUG  +++ HLT_g5_etcut_L1EM3 ID#471243435
TriggerSummaryStep3                     19  0     DEBUG  +++ HLT_e3_etcut_L1EM3 ID#683953566
TriggerSummaryStep3                     19  0     DEBUG  +++ HLT_e7_etcut_L1EM3 ID#1959043579
TrigSignatureMoniMT                                INFO HLT_2mu4_bBmumu_L12MU4        20        20        0         0         0         0         0         0         
TrigSignatureMoniMT                                INFO HLT_2mu4_bBmumu_L12MU4 decisions                    0         0         0         0         0         
TrigSignatureMoniMT                                INFO HLT_2mu4_bDimu_L12MU4         20        20        0         0         0         0         0         0         
TrigSignatureMoniMT                                INFO HLT_2mu4_bDimu_L12MU4 decisions                    0         0         0         0         0         
TrigSignatureMoniMT                                INFO HLT_2mu4_bJpsimumu_L12MU4     20        20        0         0         0         0         0         0         
TrigSignatureMoniMT                                INFO HLT_2mu4_bJpsimumu_L12MU4 decisions                    0         0         0         0         0         
TrigSignatureMoniMT                                INFO HLT_2mu4_bUpsimumu_L12MU4     20        20        0         0         0         0         0         0         
TrigSignatureMoniMT                                INFO HLT_2mu4_bUpsimumu_L12MU4 decisions                    0         0         0         0         0         
TrigSignatureMoniMT                                INFO HLT_2mu6Comb_L12MU6           20        20        0         0         0         0         0         0         
TrigSignatureMoniMT                                INFO HLT_2mu6Comb_L12MU6 decisions                     0         0         0         0         0         
TrigSignatureMoniMT                                INFO HLT_2mu6_bJpsimumu_L12MU6     20        20        0         0         0         0         0         0         
TrigSignatureMoniMT                                INFO HLT_2mu6_bJpsimumu_L12MU6 decisions                    0         0         0         0         0         
TrigSignatureMoniMT                                INFO HLT_3j200_L1J20               20        20        0         0         0         0         0         0         
TrigSignatureMoniMT                                INFO HLT_3j200_L1J20 decisions                         0         0         0         0         0         
TrigSignatureMoniMT                                INFO HLT_5j70_0eta240_L1J20        20        20        0         0         0         0         0         0         
TrigSignatureMoniMT                                INFO HLT_5j70_0eta240_L1J20 decisions                    0         0         0         0         0         
TrigSignatureMoniMT                                INFO HLT_e3_etcut1step_L1EM3       20        20        18        0         0         0         0         18        
TrigSignatureMoniMT                                INFO HLT_e3_etcut1step_L1EM3 decisions                    54        0         0         0         0         
TrigSignatureMoniMT                                INFO HLT_e3_etcut_L1EM3            20        20        18        17        17        0         0         17        
TrigSignatureMoniMT                                INFO HLT_e3_etcut_L1EM3 decisions                      54        213       83        0         0         
TrigSignatureMoniMT                                INFO HLT_e3_etcut_mu6_L1EM8I_MU10  20        20        10        0         0         0         0         1         
TrigSignatureMoniMT                                INFO HLT_e3_etcut_mu6_L1EM8I_MU10 decisions                    17        0         0         0         0         
TrigSignatureMoniMT                                INFO HLT_e5_etcut_L1EM3            20        20        17        16        16        0         0         16        
TrigSignatureMoniMT                                INFO HLT_e5_etcut_L1EM3 decisions                      50        207       46        0         0         
TrigSignatureMoniMT                                INFO HLT_e7_etcut_L1EM3            20        20        15        14        12        0         0         12        
TrigSignatureMoniMT                                INFO HLT_e7_etcut_L1EM3 decisions                      36        170       25        0         0         
TrigSignatureMoniMT                                INFO HLT_g5_etcut_L1EM3            20        20        17        17        17        0         0         17        
TrigSignatureMoniMT                                INFO HLT_g5_etcut_L1EM3 decisions                      50        50        58        0         0         
TrigSignatureMoniMT                                INFO HLT_j0_vbenfSEP30etSEP34mass35SEP50fbet_L1J2020        20        1         0         0         0         0         1         
TrigSignatureMoniMT                                INFO HLT_j0_vbenfSEP30etSEP34mass35SEP50fbet_L1J20 decisions                    2         0         0         0         0         
TrigSignatureMoniMT                                INFO HLT_j260_320eta490_L1J20      20        20        0         0         0         0         0         0         
TrigSignatureMoniMT                                INFO HLT_j260_320eta490_L1J20 decisions                    0         0         0         0         0         
TrigSignatureMoniMT                                INFO HLT_j35_gsc45_bmv2c1070_L1J20 20        20        6         5         0         0         0         5         
TrigSignatureMoniMT                                INFO HLT_j35_gsc45_bmv2c1070_L1J20 decisions                    9         5         0         0         0         
TrigSignatureMoniMT                                INFO HLT_j35_gsc45_bmv2c1070_split_L1J2020        20        6         5         0         0         0         5         
TrigSignatureMoniMT                                INFO HLT_j35_gsc45_bmv2c1070_split_L1J20 decisions                    9         5         0         0         0         
TrigSignatureMoniMT                                INFO HLT_j35_gsc45_boffperf_split_L1J2020        20        6         5         0         0         0         5         
TrigSignatureMoniMT                                INFO HLT_j35_gsc45_boffperf_split_L1J20 decisions                    9         5         0         0         0         
TrigSignatureMoniMT                                INFO HLT_j420_L1J20                20        20        0         0         0         0         0         0         
TrigSignatureMoniMT                                INFO HLT_j420_L1J20 decisions                          0         0         0         0         0         
TrigSignatureMoniMT                                INFO HLT_j45_L1J20                 20        20        5         0         0         0         0         5         
TrigSignatureMoniMT                                INFO HLT_j45_L1J20 decisions                           5         0         0         0         0         
TrigSignatureMoniMT                                INFO HLT_j460_a10_lcw_subjes_L1J20 20        20        0         0         0         0         0         0         
TrigSignatureMoniMT                                INFO HLT_j460_a10_lcw_subjes_L1J20 decisions                    0         0         0         0         0         
TrigSignatureMoniMT                                INFO HLT_j460_a10r_L1J20           20        20        0         0         0         0         0         0         
TrigSignatureMoniMT                                INFO HLT_j460_a10r_L1J20 decisions                     0         0         0         0         0         
TrigSignatureMoniMT                                INFO HLT_j85_L1J20                 20        20        1         0         0         0         0         1         
TrigSignatureMoniMT                                INFO HLT_j85_L1J20 decisions                           1         0         0         0         0         
TrigSignatureMoniMT                                INFO HLT_mu20_ivar_L1MU6           20        20        3         1         1         0         0         1         
TrigSignatureMoniMT                                INFO HLT_mu20_ivar_L1MU6 decisions                     3         1         1         0         0         
TrigSignatureMoniMT                                INFO HLT_mu6Comb_L1MU6             20        20        3         2         0         0         0         2         
TrigSignatureMoniMT                                INFO HLT_mu6Comb_L1MU6 decisions                       3         2         0         0         0         
TrigSignatureMoniMT                                INFO HLT_mu6_L1MU6                 20        20        3         2         1         1         0         1         
TrigSignatureMoniMT                                INFO HLT_mu6_L1MU6 decisions                           3         2         1         1         0         
TrigSignatureMoniMT                                INFO HLT_mu6_mu4_L12MU4            20        20        4         0         0         0         0         0         
TrigSignatureMoniMT                                INFO HLT_mu6_mu4_L12MU4 decisions                      7         0         0         0         0         
TrigSignatureMoniMT                                INFO HLT_mu6fast_L1MU6             20        20        3         0         0         0         0         3         
TrigSignatureMoniMT                                INFO HLT_mu6fast_L1MU6 decisions                       3         0         0         0         0         
TrigSignatureMoniMT                                INFO HLT_mu6msonly_L1MU6           20        20        3         0         2         0         0         2         
TrigSignatureMoniMT                                INFO HLT_mu6msonly_L1MU6 decisions                     3         0         2         0         0         
TrigSignatureMoniMT                                INFO HLT_mu6nol1_L1MU6             20        20        3         1         0         0         0         1         
TrigSignatureMoniMT                                INFO HLT_mu6nol1_L1MU6 decisions                       3         1         0         0         0         
TrigSignatureMoniMT                                INFO HLT_xe30_L1XE10               20        20        12        0         0         0         0         12        
TrigSignatureMoniMT                                INFO HLT_xe30_L1XE10 decisions                         12        0         0         0         0         
TrigSignatureMoniMT                                INFO HLT_xe30_cell_xe30_tcpufit_L1XE1020        20        12        0         0         0         0         3         
TrigSignatureMoniMT                                INFO HLT_xe30_cell_xe30_tcpufit_L1XE10 decisions                    18        0         0         0         0         
TrigSignatureMoniMT                                INFO HLT_xe30_tcpufit_L1XE10       20        20        3         0         0         0         0         3         
TrigSignatureMoniMT                                INFO HLT_xe30_tcpufit_L1XE10 decisions                    3         0         0         0         0         
TrigSignatureMoniMT                                INFO HLT_xe65_L1XE50               20        20        3         0         0         0         0         3         
TrigSignatureMoniMT                                INFO HLT_xe65_L1XE50 decisions                         3         0         0         0         0         
